Data Wrangling with dplyr
…
```r
# Load libraries
library(dplyr)
library(readr)

# Load the city data 
city = read_csv("~/Documents/github/epsy-8251/data/riverview.csv")

# View data
city
```

```
## # A tibble: 32 x 6
##    education income seniority gender  male party      
##        <dbl>  <dbl>     <dbl> <chr>  <dbl> <chr>      
##  1         8   37.4         7 male       1 Democrat   
##  2         8   26.4         9 female     0 Independent
##  3        10   47.0        14 male       1 Democrat   
##  4        10   34.2        16 female     0 Independent
##  5        10   25.5         1 female     0 Republican 
##  6        12   46.5        11 female     0 Democrat   
##  7        12   37.7        14 male       1 Democrat   
##  8        12   50.3        24 male       1 Democrat   
##  9        12   52.5        16 female     0 Independent
## 10        14   32.6         5 female     0 Independent
## # … with 22 more rows
```
…
