Introduction to R and RStudio
…
Data frames are the most common structures we will be working with in the course. For example, when we import data into RStudio, it will typically be stored as a data frame (or as a related structure called a tibble). 

Data frames and tibbles have a tabular (rectangular) structure made up of rows (cases) and columns (variables).

```
## Parsed with column specification:
## cols(
##   name = col_character(),
##   sat = col_integer(),
##   gradRate = col_double()
## )
```

```
## # A tibble: 30 x 3
##    name                                 sat gradRate
##    <chr>                              <int>    <dbl>
##  1 Carleton College                    1415     93.8
##  2 Macalester College                  1365     89.8
##  3 St. Olaf College                    1320     86.4
##  4 Gustavus Adolphus College           1245     83  
##  5 College of Saint Benedict           1165     81  
##  6 Saint Johns University              1165     77.1
##  7 University of St. Thomas            1165     74.4
##  8 Martin Luther College               1145     73.2
##  9 University of MinnesotaTwin Cities  1245     72.9
## 10 Bethel University                   1145     70.6
## # ... with 20 more rows
```
…
