Plotting with ggplot2
…
# Preparation

```r
# Load libraries
library(dplyr)
library(ggplot2)
library(readr)

# Import and view the city data 
city = read_csv("~/Dropbox/epsy-8251/data/riverside.csv")
city
```

```
## # A tibble: 32 x 6
##    education income seniority gender  male party      
##        <int>  <int>     <int> <chr>  <int> <chr>      
##  1         8  37449         7 male       1 Democrat   
##  2         8  26430         9 female     0 Independent
##  3        10  47034        14 male       1 Democrat   
##  4        10  34182        16 female     0 Independent
##  5        10  25479         1 female     0 Republican 
##  6        12  46488        11 female     0 Democrat   
##  7        12  37656        14 male       1 Democrat   
##  8        12  50265        24 male       1 Democrat   
##  9        12  52480        16 female     0 Independent
## 10        14  32631         5 female     0 Independent
## # ... with 22 more rows
```
…
